26603172
26603172
29439754
29439754
30220493
30220493
29970891
29970891
n/p
n/p
27416987
27416987
29439754
29439754
30220493
30220493
29970891
29970891
28655818
28655818
n/p
n/p
29439754
29439754
30220493
30220493
29970891
29970891
28797329
28797329
n/p
n/p
29439754
29439754
30220493
30220493
29970891
29970891
28962028
28962028
n/p
n/p
29439754
29439754
30220493
30220493
29970891
29970891
n/p
n/p
29970891
29970891
n/p
n/p
29970891
29970891
n/p
n/p
29970891
29970891
n/p